<?xml version="1.0" encoding="utf-8"?>
<!-- Generator: Adobe Illustrator 19.1.1, SVG Export Plug-In . SVG Version: 6.00 Build 0)  -->
<svg version="1.1" id="Layer_1" xmlns="http://www.w3.org/2000/svg" xmlns:xlink="http://www.w3.org/1999/xlink" x="0px" y="0px"
	 viewBox="0 0 20 20" style="enable-background:new 0 0 20 20;" xml:space="preserve">
<style type="text/css">
	.st0{fill:#808285;}
	.st1{fill:#AB218E;}
	.st2{fill:#FFFFFF;}
	.st3{fill:#E6E7E8;}
	.st4{fill:#01B79C;}
	.st5{fill:#00B79C;}
	.st6{fill:#F1666A;}
	.st7{fill:none;stroke:#818486;stroke-width:1.1;stroke-miterlimit:10;}
</style>
<g>
	<circle class="st4" cx="10" cy="10" r="10"/>
	<g>
		<g>
			<g>
				<path class="st2" d="M16.5,3.9c-2.5,2.8-5,5.5-7.5,8.3c0.5,0,0.9,0,1.4,0c-1.6-1.5-3.2-3-4.8-4.4C4.7,6.9,3.3,8.3,4.2,9.2
					c1.6,1.5,3.2,3,4.8,4.4c0.4,0.4,1,0.4,1.4,0c2.5-2.8,5-5.5,7.5-8.3C18.8,4.4,17.4,3,16.5,3.9L16.5,3.9z"/>
			</g>
		</g>
		<path class="st2" d="M17.6,5.7l0.9-1c0,0-0.5-0.8-1.3-1.6l-0.9,1.1L17.6,5.7z"/>
	</g>
</g>
</svg>
