<?xml version="1.0" encoding="utf-8"?>
<!-- Generator: Adobe Illustrator 19.1.1, SVG Export Plug-In . SVG Version: 6.00 Build 0)  -->
<svg version="1.1" id="Layer_1" xmlns="http://www.w3.org/2000/svg" xmlns:xlink="http://www.w3.org/1999/xlink" x="0px" y="0px"
	 viewBox="0 0 18 18" style="enable-background:new 0 0 18 18;" xml:space="preserve">
<style type="text/css">
	.st0{fill:none;stroke:#FFFFFF;stroke-width:1.6;stroke-miterlimit:10;}
	.st1{fill:#FFFFFF;}
</style>
<g>
	<g>
		<g>
			<path class="st1" d="M1.7,13.9c1.7,2.1,4.5,3.6,7.2,3.4c3.9-0.3,7.5-3.8,7.7-7.7c0.1-2.7-1.2-5.5-3.3-7.1C10-0.1,6.3,0.3,3.5,3.4
				C2.8,4.2,4,5.4,4.7,4.6c2.4-2.6,5.6-2.8,8.1-0.2c1.3,1.3,2.1,3.4,2,5.3c-0.2,3.7-4.3,6.8-7.9,5.9c-1.6-0.4-3-1.5-4.1-2.7
				C2.2,11.9,1,13.1,1.7,13.9L1.7,13.9z"/>
		</g>
	</g>
	<g>
		<g>
			<path class="st1" d="M8.9,7.3c0,1.2,0,2.4,0,3.6c0.3-0.3,0.6-0.6,0.8-0.9c-1.3,0-2.7,0-4,0c-1.1,0-1.1,1.7,0,1.7c1.3,0,2.7,0,4,0
				c0.5,0,0.9-0.4,0.9-0.8c0-1.2,0-2.4,0-3.6C10.6,6.2,8.9,6.2,8.9,7.3L8.9,7.3z"/>
		</g>
	</g>
	<g>
		<g>
			<path class="st1" d="M6.4,4.2c-1,0-2,0-3,0C3.7,4.4,4,4.6,4.3,4.8C4,3.7,3.7,2.6,3.4,1.4C3.1,0.4,1.5,0.8,1.7,1.9
				C2,3,2.3,4.2,2.6,5.3c0.1,0.4,0.5,0.6,0.8,0.6c1,0,2,0,3,0C7.5,5.9,7.5,4.2,6.4,4.2L6.4,4.2z"/>
		</g>
	</g>
</g>
</svg>
