<?xml version="1.0" encoding="utf-8"?>
<!-- Generator: Adobe Illustrator 19.1.1, SVG Export Plug-In . SVG Version: 6.00 Build 0)  -->
<svg version="1.1" id="Layer_1" xmlns="http://www.w3.org/2000/svg" xmlns:xlink="http://www.w3.org/1999/xlink" x="0px" y="0px"
	 viewBox="0 0 15 15" style="enable-background:new 0 0 15 15;" xml:space="preserve">
<style type="text/css">
	.st0{fill:#808285;}
	.st1{fill:#FFFFFF;}
	.st2{fill:#662D91;}
</style>
<g>
	<circle class="st0" cx="7.5" cy="7.5" r="7.3"/>
	<g>
		<g>
			<g>
				<path class="st1" d="M4.1,8.9C3.6,8.3,3,7.6,2.5,6.9c0,0.3,0.1,0.6,0.1,0.9c0.5-0.7,1.1-1.4,1.6-2.1C4.8,5,3.5,4.2,2.9,5
					C2.4,5.7,1.9,6.4,1.3,7.1C1.1,7.4,1.3,7.8,1.4,8C2,8.7,2.5,9.3,3,10C3.6,10.7,4.7,9.7,4.1,8.9L4.1,8.9z"/>
			</g>
		</g>
		<g>
			<g>
				<path class="st1" d="M2.5,8.2c2.4,0,4.9,0,7.3,0c1,0,1-1.5,0-1.5c-2.4,0-4.9,0-7.3,0C1.5,6.7,1.5,8.2,2.5,8.2L2.5,8.2z"/>
			</g>
		</g>
	</g>
</g>
</svg>
