<?xml version="1.0" encoding="utf-8"?>
<!-- Generator: Adobe Illustrator 19.1.1, SVG Export Plug-In . SVG Version: 6.00 Build 0)  -->
<svg version="1.1" id="Layer_1" xmlns="http://www.w3.org/2000/svg" xmlns:xlink="http://www.w3.org/1999/xlink" x="0px" y="0px"
	 viewBox="0 0 18 18" style="enable-background:new 0 0 18 18;" xml:space="preserve">
<style type="text/css">
	.st0{fill:none;stroke:#662D91;stroke-width:1.6;stroke-miterlimit:10;}
	.st1{fill:none;stroke:#662F90;stroke-width:1.6;stroke-miterlimit:10;}
	.st2{fill:#662F90;}
	.st3{fill:#662D91;}
</style>
<g>
	<path class="st1" d="M16.3,2H1.7C1.4,2,1.1,2.3,1.1,2.6v9.8v0.3v2.7c0,0.5,0.5,0.7,0.9,0.4L4.6,13c0.2-0.1,0.4-0.2,0.6-0.2h10
		c0.9,0,1.6,0.1,1.6-0.8V2.6C16.9,2.3,16.6,2,16.3,2z"/>
</g>
</svg>
