<?xml version="1.0" encoding="utf-8"?>
<!-- Generator: Adobe Illustrator 19.1.1, SVG Export Plug-In . SVG Version: 6.00 Build 0)  -->
<svg version="1.1" id="Layer_1" xmlns="http://www.w3.org/2000/svg" xmlns:xlink="http://www.w3.org/1999/xlink" x="0px" y="0px"
	 viewBox="0 0 30 30" style="enable-background:new 0 0 30 30;" xml:space="preserve">
<style type="text/css">
	.st0{fill:none;stroke:#808285;stroke-width:1.5;stroke-miterlimit:10;}
	.st1{fill:none;stroke:#818486;stroke-width:1.5;stroke-miterlimit:10;}
	.st2{fill:none;stroke:#F1666A;stroke-width:1.5;stroke-miterlimit:10;}
	.st3{fill:#808285;}
	.st4{fill:none;stroke:#662F90;stroke-width:1.5;stroke-miterlimit:10;}
	.st5{fill:#662F90;}
</style>
<g>
	<path class="st0" d="M26.8,15.3l-1.2,1.2c-0.1,0.1-0.3,0.2-0.5,0.2h-3c-0.2,0-0.4,0.1-0.6,0.2l-0.6,0.6c-0.3,0.4-0.9,0.3-1.2-0.1
		L19.3,17c-0.1-0.2-0.4-0.3-0.6-0.3H17c-0.2,0-0.5,0.1-0.6,0.3L16,17.4c-0.3,0.4-0.8,0.4-1.2,0.1L14.4,17c-0.1-0.2-0.3-0.2-0.6-0.2
		h0c-0.7,2.2-2.8,3.8-5.3,3.8c-3.1,0-5.6-2.5-5.6-5.6s2.5-5.6,5.6-5.6c2.5,0,4.7,1.7,5.3,4h11.9c0.2,0,0.4,0.1,0.5,0.2l0.5,0.5
		C27.1,14.5,27.1,15,26.8,15.3z"/>
	<circle class="st3" cx="7.2" cy="14.9" r="1.3"/>
</g>
</svg>
