<?xml version="1.0" encoding="utf-8"?>
<!-- Generator: Adobe Illustrator 23.0.1, SVG Export Plug-In . SVG Version: 6.00 Build 0)  -->
<svg version="1.1" id="Layer_1" xmlns="http://www.w3.org/2000/svg" xmlns:xlink="http://www.w3.org/1999/xlink" x="0px" y="0px"
	 viewBox="0 0 30 30" style="enable-background:new 0 0 30 30;" xml:space="preserve">
<style type="text/css">
	.st0{fill:none;stroke:#808184;stroke-width:1.5;stroke-miterlimit:10;}
	.st1{fill:none;stroke:#672F8F;stroke-width:1.5;stroke-miterlimit:10;}
</style>
<path class="st0" d="M4.55,11.52v15.01h7.22V21.4c0-1.75,1.42-3.17,3.17-3.17h0c1.75,0,3.17,1.42,3.17,3.17v5.13h7.34V11.52L15,3.47
	L4.55,11.52z"/>
</svg>
