<?xml version="1.0" encoding="utf-8"?>
<!-- Generator: Adobe Illustrator 19.1.1, SVG Export Plug-In . SVG Version: 6.00 Build 0)  -->
<svg version="1.1" id="Layer_1" xmlns="http://www.w3.org/2000/svg" xmlns:xlink="http://www.w3.org/1999/xlink" x="0px" y="0px"
	 viewBox="0 0 30 30" style="enable-background:new 0 0 30 30;" xml:space="preserve">
<style type="text/css">
	.st0{fill:none;stroke:#808285;stroke-width:1.5;stroke-miterlimit:10;}
	.st1{fill:none;stroke:#818486;stroke-width:1.5;stroke-miterlimit:10;}
	.st2{fill:none;stroke:#F1666A;stroke-width:1.5;stroke-miterlimit:10;}
	.st3{fill:#808285;}
	.st4{fill:none;stroke:#662F90;stroke-width:1.5;stroke-miterlimit:10;}
	.st5{fill:#662F90;}
</style>
<g>
	<circle class="st4" cx="15" cy="9.9" r="5.6"/>
	<path class="st4" d="M5.1,25.7h19.8c0.7,0,1.3-0.7,1.1-1.4c-0.6-2-2.2-5.7-6.5-6.1c-5.9-0.5-8.1,0.1-8.1,0.1S4.8,18.7,4,24.5
		C3.9,25.1,4.5,25.7,5.1,25.7z"/>
</g>
</svg>
